# wizard stats

# level		exp		thac0	ppdm	rsw		pp		bw		spell
1			0		20		14		11		13		15		12
2			2500	20		14		11		13		15		12
3			5000	20		14		11		13		15		12
4			10000	19		14		11		13		15		12
5			20000	19		14		11		13		15		12
6			40000	19		13		9		11		13		10
7			60000	18		13		9		11		13		10
8			90000	18		13		9		11		13		10
9			135000	18		13		9		11		13		10
10			250000	17		13		9		11		13		10
11			375000	17		11		7		9		11		8
12			750000	17		11		7		9		11		8
13			1125000	16		11		7		9		11		8
14			1500000	16		11		7		9		11		8
15			1875000	16		11		7		9		11		8
16			2250000	15		10		5		7		9		6
17			2625000	15		10		5		7		9		6
18			3000000	15		10		5		7		9		6
19			3375000	14		10		5		7		9		6
20			3750000	14		10		5		7		9		6
21			0		14		8		3		5		7		4